2022/02/18 12:08:21 [emerg] 8#8: host not found in upstream "todo" in /etc/nginx/sites-available/todo.conf:29
2022/02/18 12:19:22 [emerg] 8#8: host not found in upstream "todo" in /etc/nginx/sites-available/todo.conf:29
2022/02/18 12:23:03 [emerg] 7#7: host not found in upstream "todo" in /etc/nginx/sites-available/todo.conf:29
